…
<img src="rmd_arquivo_files/figure-gfm/unnamed-chunk-6-1.png" style="display: block; margin: auto;" />

``` r
dados %>% 
  select(extraversion:novator) %>% 
  rownames_to_column(var = "ID") %>% 
  pivot_longer(extraversion:novator, names_to = "variavel", values_to = "valor") %>% 
  group_by(ID) %>% 
  mutate(the_rank  = rank(-valor, ties.method = "random")) %>%
  filter(the_rank %in% c(1, 2, 3)) %>% 
  select(-the_rank) %>% 
  pivot_wider(names_from = variavel, values_from = valor)
```

    ## # A tibble: 1,129 x 6
    ## # Groups:   ID [1,129]
    ##    ID    extraversion anxiety novator independ selfcontrol
    ##    <chr>        <dbl>   <dbl>   <dbl>    <dbl>       <dbl>
    ##  1 1              6.2     7.1     8.3     NA            NA
    ##  2 2              6.2     7.1     8.3     NA            NA
    ##  3 3              6.2    NA       8.3      6.2          NA
    ##  4 4              5.4    NA       6.7      7.6          NA
    ##  5 5             NA       7.1    NA        4.1           8
    ##  6 6              6.2    NA       6.7      6.2          NA
    ##  7 7              6.2    NA       6.7      6.2          NA
    ##  8 8             NA      NA       4.4      5.5           8
    ##  9 9              8.6    NA       7.5      6.9          NA
    ## 10 10            NA       7.9     8.3      5.5          NA
    ## # ... with 1,119 more rows
…
